                <div class="container-fluid +top">

                    <section class="featured +read-easy">

                        <article class="featured_article">

                            <div class="article_header">


                                <div class="article_header+wider">
                                    <h1>Kwaeri Platform</h1>
                                    <p>Content Management on the Node!</p>
                                </div>

                                <div class="article_header+related">

                                    <span class="content_related-list+title">Contents</span>
                                    <ul class="content_related-list">
                                        <li>Recent Activity</li>
                                        <li>Content Outlook</li>
                                        <li>Visitor Dynamics</li>
                                        <li>Statistics</li>
                                    </ul>
                                </div>

                            </div>

                            <!-- <hr>

                            <div class="row">
                            [[
                                // Testing our foreach function
                                foreach( testvar as record )
                                {
                                    <div class="column+3">
                                        <img class="img-circle" src="data:image/gif;base64,R0lGODlhAQABAIAAAHd3dwAAACH5BAAAAAAALAAAAAABAAEAAAICRAEAOw==" alt="Generic placeholder image" style="width: 140px; height: 140px;" >
                                        <h4><strong>[[ record.a ]]</strong></h4>
                                    </div>
                                }
                            ]]
                            </div> -->

                            <!--<div id="what-is-kwaeri" class="article_header+sub">
                                <h6>The kwaeri user experience library is part of the kwaeri suite of developer tools, which contribute a standardization for developing applications in a browser.</h6>

                                <p>kwaeri user experience (kux, for short) implements and extends Material Design, adding several components and features, and simplifies development of modern applications. By leveraging asynchronous technologies and making use of responsive interface design practices, kux presents an innovative experience to end users.</p>
                            </div>-->

                            <hr>

                            <div class="row featurette showcase">
                                <div class="column+6">
                                    <h4>Recent Activity</h4>
                                    <p>Recent activity with your application is broken down in to the types of activity which are configured to be tracked.</p>

                                    <p>From authoring blogs, to runninng reports, review the types of activities your site administrators are engaging in.</p>
                                </div>
                                <div class="column+6">
                                    <canvas data-chart="canvas" data-chart-initialized="false"
                                        data-chart-data='{"type": "bar","data": {"labels": ["Red", "Blue", "Yellow", "Green", "Purple", "Orange"],"datasets": [{"label": "# of Votes","data": [12, 19, 3, 5, 2, 3], "backgroundColor": ["rgba(255, 99, 132, 0.2)","rgba(54, 162, 235, 0.2)","rgba(255, 206, 86, 0.2)","rgba(75, 192, 192, 0.2)","rgba(153, 102, 255, 0.2)","rgba(255, 159, 64, 0.2)"],"borderColor": ["rgba(255,99,132,1)","rgba(54, 162, 235, 1)","rgba(255, 206, 86, 1)","rgba(75, 192, 192, 1)","rgba(153, 102, 255, 1)", "rgba(255, 159, 64, 1)"],"borderWidth": 1}]},"options": {"scales": {"yAxes": [{"ticks": {"beginAtZero":"true"}}]}}}'
                                        width="400" height="400"></canvas>
                                </div>
                            </div>

                            <hr>

                            <div class="row featurette showcase">

                                <div class="column+6">
                                    <canvas data-chart="canvas" data-chart-initialized="false"
                                        data-chart-data='{"type": "doughnut",
                                                        "data": {
                                                            "labels": [
                                                                "Red", "Blue", "Yellow", "Green"
                                                                ],
                                                            "datasets": [{
                                                                "label": "Color Usage",
                                                                "data": [12, 19, 16, 9],
                                                            "backgroundColor": [
                                                                "#FF6384",
                                                                "#36A2EB",
                                                                "#FFCE56",
                                                                "#4BC0C0"
                                                                ],
                                                            "borderColor": [
                                                                "#ffffff",
                                                                "#ffffff",
                                                                "#ffffff",
                                                                "#ffffff"
                                                                ],
                                                                "borderWidth": 1}
                                                                ]}}'
                                        width="200" height="200"></canvas>
                                </div>

                                <div class="column+6">

                                <h4>Content Outlook</h4>

                                <p>Applications provide a multitude of content for end users, this section expresses the varieties of such content.</p>

                                <p>Content outlook can help you decided when you need more blogs, or to add new pages.

                                </div>
                            </div>

                            <hr>

                            <div class="row featurette showcase">

                                <div class="column+6">

                                    <h4>Visitor Dynamics</h4>

                                    <p>This section shows the total number of visits that the site has received, as well as the total number of unique handshakes (visitors).</p>

                                    <p>Additinoal analytics can be tracked, including impressions and clicks of marketing artifacts, by utilizing the marketing and opportunity extensions and associated modules.</p>

                                </div>

                                <div class="column+6">
                                    <canvas data-chart="canvas" data-chart-initialized="false"
                                        data-chart-data='{"type": "polarArea",
                                                        "data": {
                                                            "labels": [
                                                                "Red", "Blue", "Yellow", "Green"
                                                                ],
                                                            "datasets": [{
                                                                "label": "Color Usage",
                                                                "data": [12, 19, 16, 9],
                                                            "backgroundColor": [
                                                                "#FF6384",
                                                                "#36A2EB",
                                                                "#FFCE56",
                                                                "#4BC0C0"
                                                                ],
                                                            "borderColor": [
                                                                "#ffffff",
                                                                "#ffffff",
                                                                "#ffffff",
                                                                "#ffffff"
                                                                ],
                                                                "borderWidth": 1}
                                                                ]}}'
                                        width="200" height="200"></canvas>
                                </div>

                            </div>

                            <hr>

                            <div class="row featurette showcase">

                                <div class="column+6">
                                    <canvas data-chart="canvas" data-chart-initialized="false"
                                        data-chart-data='{"type": "pie",
                                                        "data": {
                                                            "labels": [
                                                                "Red", "Blue", "Yellow", "Green"
                                                                ],
                                                            "datasets": [{
                                                                "label": "Color Usage",
                                                                "data": [12, 19, 16, 9],
                                                            "backgroundColor": [
                                                                "#FF6384",
                                                                "#36A2EB",
                                                                "#FFCE56",
                                                                "#4BC0C0"
                                                                ],
                                                            "borderColor": [
                                                                "#ffffff",
                                                                "#ffffff",
                                                                "#ffffff",
                                                                "#ffffff"
                                                                ],
                                                                "borderWidth": 1}
                                                                ]}}'
                                        width="200" height="200"></canvas>
                                </div>

                                <div class="column+6">

                                    <h4>Statistics</h4>

                                    <p>The statistics section shows vital application statistics such as </p>

                                    <ul>
                                        <li>The ammount of system memory and utilization.</li>
                                        <li>The ammount of disk space and utilization.</li>
                                        <li>The number of CPU cores available and the current CPU load</li>
                                        <li>Application statistics for a MySQL instance.</li>
                                        <li>Much, much more!</li>
                                    </ul>

                                    <p>By utilizing the High Availability extension and related modules you are able to also display dynamics regarding nodes of a cluster confguration.</p>

                                </div>

                            </div>

                            <hr>
                        </article> <!-- End of Article Container -->

                    </section> <!-- End of Featured Container -->

                </div><!-- End of fluid container -->