{
    "name": "mmod-cms",
    "fancy_name": "MMod CMS",
    "version": "0.0.1",
    "description": "The proprietary CMS extension for mmod-xrm",
    "main": "index.js",
    "scripts": 
    {
        "test": "echo \"Error: no test specified\" && exit 1"
    },
    "repository": 
    {
        "type": "git",
        "url": "https://code.mmogp.com/mmod/mmod-cms.git"
    },
    "keywords": 
    [
        "MMod",
        "Massively",
        "Modified",
        "Kwaeri",
        "nodakwaeri",
        "nk",
        "nodamysql",
        "nk-mysql",
        "xrm"
    ],
    "author": "Richard B. Winters <rik@mmogp.com>",
    "license": "Apache-2.0",
    "homepage": "http://mmogp.com",
    "bugs":
    {
        "url": "https://code.mmogp.com/mmod/nk-xrm/issues"
    },
    "install":
    {
        "admin":
        {
            "directories":
            {
                "app":
                [
                    'admin/app'
                ],
                "media":
                [
                    'admin/media'
                ],
                "language":
                [
                     'language/admin'
                ]
            },
            "links":
            [
                ''
            ],
            "scripts":
            [
                ''
            ]
        },
        "front":
        {
            "directories":
            {
                "app":
                [
                    'front/app'
                ],
                "media":
                [
                    'front/media'
                ],
                "language":
                [
                    'language/front'
                ]
            },
            "module_types":
            {
                "menu": 
                {
                    "menu":
                    [
                        "database_param":
                        {
                            "label": "Menu",
                            "input": [ "dropdown" ],
                            "table": "mmod-cms-menus"
                        }
                    ],
                    "style":
                    [
                        "param":
                        {
                            "label": "Menu style",
                            "input": [ "dropdown", "Modern", "Modern", "Oldschool" ]
                        }
                    ],
                    "dropdownEnabled":
                    [
                        "param":
                        {
                            "label": "Enable the user drop-down menu",
                            "input": [ "slider", "true", "false", "true" ]
                        }
                    ],
                    "authDropdownMenu":
                    [
                        "dynamic_fieldset",
                        {
                            "title": "Authenticated dropdown menu links",
                            "params":
                            [
                                {
                                    "label": "Link title",
                                    "input": [ "text", "Title" ]
                                },
                                {
                                    "label": "Link Description",
                                    "input": [ "text", "Description text" ]
                                },
                                {
                                    "label": "Link href",
                                    "input": [ "text", "URL path" ]
                                },
                                {
                                    "label": "Link target",
                                    "input": [ "dropdown", "Self", "New window", "Self" ]
                                },
                                {
                                    "label": "Link icon",
                                    "input": [ "dropdown", "flaticon-wrench72", "flaticon-wrench72", "flaticon-wrench72" ]
                                }
                            ]
                        }
                    ],
                    "dropdownMenu":
                    [
                        "dynamic_fieldset",
                        {
                            "title": "Dropdown menu links",
                            "params":
                            [
                                {
                                    "label": "Link title",
                                    "input": [ "text", "Title" ]
                                },
                                {
                                    "label": "Link Description",
                                    "input": [ "text", "Description text" ]
                                },
                                {
                                    "label": "Link href",
                                    "input": [ "text", "URL path" ]
                                },
                                {
                                    "label": "Link target",
                                    "input": [ "dropdown", "Self", "New window", "Self" ]
                                },
                                {
                                    "label": "Link icon",
                                    "input": [ "dropdown", "flaticon-wrench72", "flaticon-wrench72", "flaticon-wrench72" ]
                                }
                            ]
                        }
                    ],
                    "authLinks":
                    [
                        "dynamic_fieldset",
                        {
                            "title": "Authenticated links",
                            "params":
                            [
                                {
                                    "label": "Link title",
                                    "input": [ "text", "Title" ]
                                },
                                {
                                    "label": "Link Description",
                                    "input": [ "text", "Description text" ]
                                },
                                {
                                    "label": "Link href",
                                    "input": [ "text", "URL path" ]
                                },
                                {
                                    "label": "Link target",
                                    "input": [ "dropdown", "Self", "New window", "Self" ]
                                },
                                {
                                    "label": "Link icon",
                                    "input": [ "dropdown", "flaticon-wrench72", "flaticon-wrench72", "flaticon-wrench72" ]
                                }
                            ]
                        }
                    ],
                    "links":
                    [
                        "dynamic_fieldset",
                        {
                            "title": "Links",
                            "params":
                            [
                                {
                                    "label": "Link title",
                                    "input": [ "text", "Title" ]
                                },
                                {
                                    "label": "Link Description",
                                    "input": [ "text", "Description text" ]
                                },
                                {
                                    "label": "Link href",
                                    "input": [ "text", "URL path" ]
                                },
                                {
                                    "label": "Link target",
                                    "input": [ "dropdown", "Self", "New window", "Self" ]
                                },
                                {
                                    "label": "Link icon",
                                    "input": [ "dropdown", "flaticon-wrench72", "flaticon-wrench72", "flaticon-wrench72" ]
                                }
                            ]
                        }
                    ]
                },
                "breadcrumb": 
                {
                
                },
                "featured": 
                {
                
                },
                "blog": 
                {
                
                },
                "footer": 
                {
                    "style": 
                    [
                        "param":
                        {
                            "label": "Footer Style",
                            "input": [ "dropdown", "Minimal", "Minimal", "Modern", "Fancy" ]
                        }
                    ],
                    "copyright": 
                    [ 
                        "fieldset",
                        {
                            "title": "Copyright",
                            "params":
                            [
                                {
                                    "label": "Show copyright",
                                    "input": [ "slider", "true", "true", "false" ]
                                },
                                {
                                    "label": "Show date",
                                    "input": [ "slider", "true", "true", "false" ]
                                },
                                {
                                    "label": "Show start date",
                                    "input": [ "text", "Starting year" ]
                                },
                                {
                                    "label": "Entity",
                                    "input": [ "text", "Entity" ]
                                }
                            ],
                        }
                    ],
                    "links"
                    [
                         "dynamic_fieldset",
                         {
                             "title": "Footer Links",
                             "params":
                             [
                                 {
                                     "label": "Link title",
                                     "input": [ "text", "Title" ]
                                 },
                                 {
                                     "label": "Link Description",
                                     "input": [ "text", "Description text" ]
                                 },
                                 {
                                     "label": "Link href",
                                     "input": [ "text", "URL path" ]
                                 },
                                 {
                                     "label": "Link target",
                                     "input": [ "dropdown", "Self", "New window", "Self" ]
                                 },
                                 {
                                     "label": "Link icon",
                                     "input": [ "dropdown", "flaticon-wrench72", "flaticon-wrench72", "flaticon-wrench72" ]
                                 }
                             ]
                         }
                     ],
                     "icon": 
                     [
                         "param":
                         {
                             "label": "Footer icon",
                             "input": [ "media", "/" ]
                         }
                     ],
                     "social": 
                     [ 
                         "dynamic_fieldset", 
                         {
                             "title": "Social links",
                             "params":
                             [
                                 {
                                     "label": "Social Provider",
                                     "input": [ "dropdown", "Google+", "Facebook", "Google+", "LinkedIn", "Twitter" ]
                                 },
                                 {
                                     "label": "Link Text",
                                     "input": [ "text", "Link text" ]
                                 },
                                 {
                                     "label": "Link URL",
                                     "input": [ "text", "Profile URL" ]
                                 }
                             ]
                         }
                     ]
                }
            },
            "links":
            [
                ''
            ],
            "scripts":
            [
                ''
            ]
        }
    },
    "migration":
    [
        'scheme'
    ]
}