                            <h4 class="sub-header">Settings</h4>
                            <div class="table-responsive">
                                <table class="table table-hover dt">
                                    <thead>
                                        <tr>
                                            <th>[[ html.label( model.article_settings, { "classes": "col-md-offset-2 col-md-2 control-label" } ) ]]</th>
                                            <th>[[ html.label( model.blog_settings, { "classes": "col-md-offset-2 col-md-2 control-label" } ) ]]</th>
                                            <th>[[ html.label( model.social_settings, { "classes": "col-md-offset-2 col-md-2 control-label" } ) ]]</th>
                                            <th>[[ html.label( model.luts, { "classes": "col-md-offset-2 col-md-2 control-label" } ) ]]</th>
                                        </tr>
                                    </thead>
                                    <tbody>
                                [[ 
                                    // Testing our foreach function
                                    foreach( settings as this_setting )
                                    { 
                                        <tr>
                                            <td>[[ this_setting.article_settings ]]</td>
                                            <td>[[ this_setting.blog_settings ]]</td>
                                            <td>[[ this_setting.social_settings ]]</td>
                                            <td>[[ this_setting.luts ]] by [[ this_setting.luby ]]</td>
                                        </tr>
                                    }
                                ]]
                                    </tbody>
                                </table>
                            </div>