                            <div data-tattle="information">
                                [[ html.raw( sysmsg ) ]]
                            </div>
                            <h4 class="sub-header">Categories</h4>
                            <div class="table-responsive">
                                <form class="adminListAll">
                                    <table class="table table-hover dt">
                                        <thead>
                                            <tr>
                                                <th class="no-sort no-search no-order">[[ html.checkbox( toggle_all ) ]]</th>
                                                <th>[[ html.label( model.title, { "classes": "col-md-offset-2 col-md-2 control-label" } ) ]]</th>
                                                <th>[[ html.label( model.description, { "classes": "col-md-offset-2 col-md-2 control-label" } ) ]]</th>
                                                <th>[[ html.label( model.ts, { "classes": "col-md-offset-2 col-md-2 control-label" } ) ]]</th>
                                                <th>[[ html.label( model.enabled, { "classes": "col-md-offset-2 col-md-2 control-label" } ) ]]</th>
                                            </tr>
                                        </thead>
                                        <tbody>
                                    [[ 
                                        // Testing our foreach function
                                        foreach( categories as this_category )
                                        { 
                                            <tr>
                                                <td class="cb-center">[[ html.checkbox( this_category.id ) ]]</td>
                                                <td><a href="/extensions/manage/mmod-cms/categories/edit" data-xrm="turn" data-system="ext" data-params='{ "categoryId": "[[ this_category.id ]]" }'>[[ this_category.title ]]</a></td>
                                                <td>[[ this_category.description ]]</td>
                                                <td>[[ this_category.ts ]]</td>
                                                <td>[[ this_category.enabled ]]</td>
                                            </tr>
                                        }
                                    ]]
                                        </tbody>
                                    </table>
                                </form>
                            </div>