{
    "name": "mmod-utilities",
    "fancy_name": "MMOD Utilities",
    "version": "0.0.1",
    "description": "The proprietary module creation extension for mmod-xrm",
    "main": "index.js",
    "scripts": 
    {
        "test": "echo \"Error: no test specified\" && exit 1"
    },
    "repository": 
    {
        "type": "git",
        "url": "https://code.mmogp.com/mmod/mmod-utilities.git"
    },
    "keywords": 
    [
        "MMod",
        "Massively",
        "Modified",
        "Kwaeri",
        "nodakwaeri",
        "nk",
        "nodamysql",
        "nk-mysql",
        "xrm"
    ],
    "author": "Richard B. Winters <rik@mmogp.com>",
    "license": "Apache-2.0",
    "homepage": "http://mmogp.com",
    "bugs":
    {
        "url": "https://code.mmogp.com/mmod/nk-xrm/issues"
    },
    "install":
    {
        "admin":
        {
            "directories":
            {
                "app":
                [
                    'admin/app'
                ],
                "media":
                [
                    'admin/media'
                ],
                "language":
                [
                     'language/admin'
                ]
            },
            "links":
            [
                ''
            ],
            "scripts":
            [
                ''
            ]
        },
        "front":
        {
            "directories":
            {
                "app":
                [
                    'front/app'
                ],
                "media":
                [
                    'front/media'
                ],
                "language":
                [
                    'language/front'
                ]
            },
            "module_types":
            {
                "kwaeri_lytebox": 
                {
                    "project":
                    [
                        "database_param":
                        {
                            "label": "Project",
                            "input": [ "dropdown" ],
                            "table": "mmod-kgpb-projects"
                        }
                    ],
                    "type":
                    [
                        "param":
                        {
                            "label": "Project type",
                            "input": [ "dropdown", "Babylon-JS", "Babylon-JS" ]
                        }
                    ]
                },
                "kwaeri_chat": 
                {
                    "project":
                    [
                        "database_param":
                        {
                            "label": "Project",
                            "input": [ "dropdown" ],
                            "table": "mmod-kgpb-projects"
                        }
                    ],
                    "type":
                    [
                        "param":
                        {
                            "label": "Project type",
                            "input": [ "dropdown", "Babylon-JS", "Babylon-JS" ]
                        }
                    ]
                }
            },
            "links":
            [
                ''
            ],
            "scripts":
            [
                ''
            ]
        }
    },
    "migration":
    [
        'scheme'
    ]
}