                            <div data-tattle="information">
                                [[ html.raw( sysmsg ) ]]
                            </div>
                            <form id="addMenuForm" name="addMenuForm">
                                <div class="form-group">
                                    [[ html.label( model.title, { "classes": "col-md-1 col-lg-1 control-label" } ) ]]
                                    <div class="col-lg-6">
                                    [[ html.textbox( "", { "classes": "form-control", "name": "title", "placeholder": "Enter the menu title" } ) ]]
                                    [[ html.validationmessage( model.title ) ]]
                                    </div>
                                </div>
                                <div class="form-group">
                                    [[ html.label( model.description, { "classes": "col-md-1 col-lg-1 control-label" } ) ]]
                                    <div class="col-lg-8">
                                    [[ html.textbox( "", { "classes": "form-control", "name": "description", "placeholder": "Enter the menu description" } ) ]]
                                    [[ html.validationmessage( model.description ) ]]
                                    </div>
                                </div>
                                <div class="form-group">
                                    [[ html.label( model.enabled, { "classes": "col-md-1 col-lg-1 control-label" } ) ]]
                                    <div class="col-md-6">
                                        [[ html.select( enabledTypes, { "classes": "form-control", "name": "enabled" } ) ]]
                                        [[ html.validationmessage( model.enabled ) ]]
                                    </div>
                                </div>
                                <div class="col-md-offset-10 col-md-2">
                                    <a href="/extensions/manage/mmod-cms/menus/add" data-xrm="turn" data-system="ext" data-method="POST" data-params='{ "type": "submitForm", "formName": "addMenuForm", "resultSet": "1", "forward": "index" }' class="xrm-link btn btn-success mbif"><span class="flaticon-harddisc mbf"></span> Add</a>
                                </div>
                                <div class="form-group"><br/><br/><br/><br/></div>
                            </form>