                <div class="container blend-navbar navbar-blend-white">
                    <div class="row topper">
                        <div class="card">
                            <div class="card-header">
                                <nav class="navbar navbar-default navbar-xrm-content">

                                        <!-- Brand and toggle get grouped for better mobile display -->
                                        <div class="navbar-header">
                                            <button type="button" class="navbar-toggle collapsed" data-toggle="collapse" data-target="#bs-example-navbar-collapse-1">
                                                <span class="sr-only">Toggle navigation</span>
                                                <span class="icon-bar"></span>
                                                <span class="icon-bar"></span>
                                                <span class="icon-bar"></span>
                                            </button>
                                            <div class="navbar-brand">[[pagetitle]]</div>
                                        </div>

                                        <!-- Collect the nav links, forms, and other content for toggling -->
                                        <div class="collapse navbar-collapse" id="bs-example-navbar-collapse-1">
                                            <ul class="nav navbar-nav navbar-right nav-pills">
                                                <li><a href="/about/terms" data-xrm="turn"><span class="btn btn-warning"><span class="flaticon-list81 mpbf"></span> View Terms</span></a></li>
                                                <li><a href="/about/privacy" data-xrm="turn"><span class="btn btn-warning"><span class="flaticon-invisible3 mpbf"></span> Privacy Policy</span></a></li>
                                            </ul>
                                        </div><!-- /.navbar-collapse -->
                                </nav>
                            </div>
                            <div class="card-body"></div>
                        </div>


                    </div>
                    <div class="row">
                        <div class="col-lg-12">
                            <p><h1>The Company: Massively Modified, Inc.</h1> Formed May, 2014, by Chief Executive Richard B Winters</p>
                            <p></p>
                            <p></p>
                            <div class="row">
                                <div class="col-lg-12">
                                    <div class="col-lg-6">
                                        <img src="//cdn.mmogp.com/mmod/kwaeri-ux/images/mmod-logo-fin-128.png" alt="MMOD" class="img-circle kwaeri-leadin-graphic wrap-right"></img>
                                        <p><h2>A Modern Philosophy</h2></p>
                                        <p></p>
                                        <p>It is our philosophy that one should not think 'outside of the box', but rather: modify it. What we have done is to create our own standards and guidelines for development; and the results are quite impressive!</p>
                                        <p></p>
                                        <p>Our methodology is termed MESSSE Code - yes, it sounds like messy! And it is an extension applied to Agile Methodologies and Practices:</p>
                                    </div>
                                    <div class="col-lg-6">
                                        <img src="//www.gravatar.com/avatar/9439774df1d35e22883c04213e95f156" alt="rik" class="img-circle kwaeri-leadin-graphic wrap-left"></img>
                                        <p><h2>A bit from our Chief Executive</h2></p>
                                        <p></p>
                                        <p>Our mission is to deliver high-quality games, simulations, and custom programming services to the public.</p>
                                        <p></p>
                                        <p>It is also our vision to establish a desirable work place where staff are treated with dignity, respect, and are rewarded adequately for their accomplishments.</p>
                                        <p></p>
                                        <p>It is my dream to create magic to share with the world, and to seek out eternity as all great kings in the past have.</p>
                                        <p></p>
                                        <span class="pull-right">
                                            <p>Richard B Winters, CEO</p>
                                        </span>
                                    </div>
                                </div>
                            </div>
                            <div class="row">
                                <div class="col-lg-7">
                                    <p><h3>Our Locations</h3></p>
                                    <p>&nbsp;</p>
                                    <p><h4>Corporate</h4></p>
                                    <iframe src="https://www.google.com/maps/embed?pb=!1m18!1m12!1m3!1d2943.635310098312!2d-75.086315!3d42.456775!2m3!1f0!2f0!3f0!3m2!1i1024!2i768!4f13.1!3m3!1m2!1s0x89db8c5d33f9b82f%3A0xdfcf3afc35b6cd07!2s40+Morgan+Ave%2C+Oneonta%2C+NY+13820!5e0!3m2!1sen!2sus!4v1433932277117" width="600" height="450" frameborder="0" style="border:0"></iframe>
                                    <p>&nbsp;</p>
                                    <p><h4>MMOD at the SouthSide Mall</h4></p>
                                    <iframe src="https://www.google.com/maps/embed?pb=!1m18!1m12!1m3!1d2944.0614775399745!2d-75.04733744947204!3d42.44770803745321!2m3!1f0!2f0!3f0!3m2!1i1024!2i768!4f13.1!3m3!1m2!1s0x89db8bbd685cb1cf%3A0xc2b27fed4c0d102e!2s5006+NY-23%2C+Oneonta%2C+NY+13820!5e0!3m2!1sen!2sus!4v1444374835916" width="600" height="450" frameborder="0" style="border:0"></iframe>
                                </div>
                                <div class="col-lg-5">
                                    <p><h3>Contact Us</h2></p>
                                    <p></p>
                                    <div>
                                        <span class="inline"><h4><span class="flaticon-chat68 icon-label"></span></h4></span><span class="inline-value">#mmod on irc.freenode.net</span></p>
                                    </div>
                                    <p></p>
                                    <div>
                                        <span class="inline"><h4><span class="flaticon-write19 icon-label"></span></h4></span><span class="inline-value"><a href="mailto:support@mmogp.com">Support</a></span>
                                    </div>
                                    <p></p>
                                    <div>
                                        <span class="inline"><h4><span class="flaticon-telephone102 icon-label"></span></h4></span><span class="inline-value"><a href="tel://1-607-431-8726" title="Call now!">+1 (607) 431-8726</a></span>
                                    </div>
                                    <p></p>
                                    <div>
                                        <span class="inline"><h4><span class="flaticon-fax4 icon-label"></span></h4></span><span class="inline-value"><a href="fax://1-877-267-0412" title="Send a fax!">+1 (877) 267-0412</a></span>
                                    </div>
                                    <p></p>
                                    <div>
                                        <span class="inline"><h4><span class="icon-label" style="padding: 0 20px 0 10px; font-size: 33px; font-weight: bold; color: #666;">in</span></h4></span><span class="inline-value"><a href="https://www.linkedin.com/company/massively-modified-inc-" target="_blank" title="Massively Modified on LinkedIn">http://www.linkedin.com/company/massively-modified-inc-</a></span>
                                    </div>
                                    <p></p>
                                    <div>
                                        <span class="inline"><h4><span class="flaticon-facebook55 icon-label"></span></h4></span><span class="inline-value"><a href="http://www.facebook.com/massivelymodified" target="_blank" title="Massively Modified on Facebook">www.facebook.com/massivelymodified</a></span>
                                    </div>
                                    <p></p>
                                    <div>
                                        <span class="inline"><h4><span class="flaticon-twitter45 icon-label"></span></h4></span><span class="inline-value"><a href="http://www.twitter.com/mmogp" target="_blank" title="Massively Modified on Twitter">www.twitter.com/mmogp</a></span>
                                    </div>
                                </div>
                            </div>
                        </div>
                    </div>
                </div>